%YAML 1.1
%TAG !u! tag:unity3d.com,2011:
--- !u!1001 &1450683234702626466
PrefabInstance:
  m_ObjectHideFlags: 0
  serializedVersion: 2
  m_Modification:
    m_TransformParent: {fileID: 0}
    m_Modifications:
    - target: {fileID: 8053991330408604112, guid: c2fdda6d762541d49a3590e423ec5f5f, type: 3}
      propertyPath: m_fontAsset
      value: 
      objectReference: {fileID: 11400000, guid: b179b81d07ff69743a677b94c8e41bc1, type: 2}
    - target: {fileID: 8053991330408604112, guid: c2fdda6d762541d49a3590e423ec5f5f, type: 3}
      propertyPath: m_sharedMaterial
      value: 
      objectReference: {fileID: 2508839043477708655, guid: b179b81d07ff69743a677b94c8e41bc1, type: 2}
    - target: {fileID: 8053991330408604113, guid: c2fdda6d762541d49a3590e423ec5f5f, type: 3}
      propertyPath: m_Pivot.x
      value: 0.5
      objectReference: {fileID: 0}
    - target: {fileID: 8053991330408604113, guid: c2fdda6d762541d49a3590e423ec5f5f, type: 3}
      propertyPath: m_Pivot.y
      value: 0.5
      objectReference: {fileID: 0}
    - target: {fileID: 8053991330408604113, guid: c2fdda6d762541d49a3590e423ec5f5f, type: 3}
      propertyPath: m_RootOrder
      value: 0
      objectReference: {fileID: 0}
    - target: {fileID: 8053991330408604113, guid: c2fdda6d762541d49a3590e423ec5f5f, type: 3}
      propertyPath: m_AnchorMax.x
      value: 0.5
      objectReference: {fileID: 0}
    - target: {fileID: 8053991330408604113, guid: c2fdda6d762541d49a3590e423ec5f5f, type: 3}
      propertyPath: m_AnchorMax.y
      value: 0.5
      objectReference: {fileID: 0}
    - target: {fileID: 8053991330408604113, guid: c2fdda6d762541d49a3590e423ec5f5f, type: 3}
      propertyPath: m_AnchorMin.x
      value: 0.5
      objectReference: {fileID: 0}
    - target: {fileID: 8053991330408604113, guid: c2fdda6d762541d49a3590e423ec5f5f, type: 3}
      propertyPath: m_AnchorMin.y
      value: 0.5
      objectReference: {fileID: 0}
    - target: {fileID: 8053991330408604113, guid: c2fdda6d762541d49a3590e423ec5f5f, type: 3}
      propertyPath: m_SizeDelta.x
      value: 50
      objectReference: {fileID: 0}
    - target: {fileID: 8053991330408604113, guid: c2fdda6d762541d49a3590e423ec5f5f, type: 3}
      propertyPath: m_SizeDelta.y
      value: 50
      objectReference: {fileID: 0}
    - target: {fileID: 8053991330408604113, guid: c2fdda6d762541d49a3590e423ec5f5f, type: 3}
      propertyPath: m_LocalPosition.x
      value: 0
      objectReference: {fileID: 0}
    - target: {fileID: 8053991330408604113, guid: c2fdda6d762541d49a3590e423ec5f5f, type: 3}
      propertyPath: m_LocalPosition.y
      value: 0
      objectReference: {fileID: 0}
    - target: {fileID: 8053991330408604113, guid: c2fdda6d762541d49a3590e423ec5f5f, type: 3}
      propertyPath: m_LocalPosition.z
      value: 0
      objectReference: {fileID: 0}
    - target: {fileID: 8053991330408604113, guid: c2fdda6d762541d49a3590e423ec5f5f, type: 3}
      propertyPath: m_LocalRotation.w
      value: 1
      objectReference: {fileID: 0}
    - target: {fileID: 8053991330408604113, guid: c2fdda6d762541d49a3590e423ec5f5f, type: 3}
      propertyPath: m_LocalRotation.x
      value: -0
      objectReference: {fileID: 0}
    - target: {fileID: 8053991330408604113, guid: c2fdda6d762541d49a3590e423ec5f5f, type: 3}
      propertyPath: m_LocalRotation.y
      value: -0
      objectReference: {fileID: 0}
    - target: {fileID: 8053991330408604113, guid: c2fdda6d762541d49a3590e423ec5f5f, type: 3}
      propertyPath: m_LocalRotation.z
      value: -0
      objectReference: {fileID: 0}
    - target: {fileID: 8053991330408604113, guid: c2fdda6d762541d49a3590e423ec5f5f, type: 3}
      propertyPath: m_AnchoredPosition.x
      value: 49.99994
      objectReference: {fileID: 0}
    - target: {fileID: 8053991330408604113, guid: c2fdda6d762541d49a3590e423ec5f5f, type: 3}
      propertyPath: m_AnchoredPosition.y
      value: -0.000061035156
      objectReference: {fileID: 0}
    - target: {fileID: 8053991330408604113, guid: c2fdda6d762541d49a3590e423ec5f5f, type: 3}
      propertyPath: m_LocalEulerAnglesHint.x
      value: 0
      objectReference: {fileID: 0}
    - target: {fileID: 8053991330408604113, guid: c2fdda6d762541d49a3590e423ec5f5f, type: 3}
      propertyPath: m_LocalEulerAnglesHint.y
      value: 0
      objectReference: {fileID: 0}
    - target: {fileID: 8053991330408604113, guid: c2fdda6d762541d49a3590e423ec5f5f, type: 3}
      propertyPath: m_LocalEulerAnglesHint.z
      value: 0
      objectReference: {fileID: 0}
    - target: {fileID: 8053991330408604118, guid: c2fdda6d762541d49a3590e423ec5f5f, type: 3}
      propertyPath: m_Name
      value: Text
      objectReference: {fileID: 0}
    m_RemovedComponents: []
  m_SourcePrefab: {fileID: 100100000, guid: c2fdda6d762541d49a3590e423ec5f5f, type: 3}
