%YAML 1.1
%TAG !u! tag:unity3d.com,2011:
--- !u!114 &11400000
MonoBehaviour:
  m_ObjectHideFlags: 0
  m_CorrespondingSourceObject: {fileID: 0}
  m_PrefabInstance: {fileID: 0}
  m_PrefabAsset: {fileID: 0}
  m_GameObject: {fileID: 0}
  m_Enabled: 1
  m_EditorHideFlags: 0
  m_Script: {fileID: 11500000, guid: 13d23891802450045b0e512bf7d89aea, type: 3}
  m_Name: Player.IsGrounded
  m_EditorClassIdentifier: 
  _description: 
  _initialValue: 0
  _unit: 
  _workingValue: 1
